2004-03-07:16 27 27
2004-03-07:17 25 25
2004-03-07:18 24 24
2004-03-07:19 26 26
2004-03-07:20 20 20
2004-03-07:21 23 23
2004-03-07:22 29 28
2004-03-07:23 22 22
2004-03-08:00 21 21
2004-03-08:01 21 21
2004-03-08:02 27 27
2004-03-08:03 22 22
2004-03-08:04 26 26
2004-03-08:05 37 32
2004-03-08:06 17 15
2004-03-08:07 31 31
2004-03-08:08 44 33
2004-03-08:09 63 44
2004-03-08:10 39 39
2004-03-08:11 34 32
2004-03-08:12 45 45
2004-03-08:13 37 37
2004-03-08:14 23 23
2004-03-08:15 9 9
2004-03-08:16 2 2
2004-03-08:17 2 2
2004-03-08:18 9 8
2004-03-08:19 6 6
2004-03-08:20 23 21
2004-03-08:22 20 19
2004-03-08:23 1 1
2004-03-09:01 12 12
2004-03-09:02 15 15
2004-03-09:03 1 1
2004-03-09:05 24 15
2004-03-09:06 29 29
2004-03-09:07 8 7
2004-03-09:08 27 20
2004-03-09:09 2 2
2004-03-09:10 11 11
2004-03-09:11 6 6
2004-03-09:12 9 9
2004-03-09:13 8 8
2004-03-09:14 14 7
2004-03-09:15 28 23
2004-03-09:16 2 2
2004-03-09:17 8 8
2004-03-09:18 12 11
2004-03-09:20 8 6
2004-03-09:21 3 3
2004-03-09:22 5 5
2004-03-09:23 1 1
2004-03-10:00 6 6
2004-03-10:02 5 4
2004-03-10:03 17 17
2004-03-10:05 1 1
2004-03-10:07 1 1
2004-03-10:08 38 37
2004-03-10:09 3 3
2004-03-10:10 6 5
2004-03-10:11 29 14
2004-03-10:12 102 28
2004-03-10:13 13 13
2004-03-10:14 3 3
2004-03-10:15 13 13
2004-03-10:16 6 6
2004-03-10:18 2 2
2004-03-10:19 2 2
2004-03-10:20 5 5
2004-03-10:21 12 12
2004-03-10:22 13 13
2004-03-10:23 9 9
2004-03-11:00 6 6
2004-03-11:01 1 1
2004-03-11:02 1 1
2004-03-11:03 6 6
2004-03-11:06 19 13
2004-03-11:07 6 6
2004-03-11:08 8 7
2004-03-11:10 3 2
2004-03-11:11 19 18
2004-03-11:12 17 15
2004-03-11:13 46 43
2004-03-11:14 15 15
2004-03-11:15 27 25
2004-03-11:16 6 6
2004-03-11:18 4 4
2004-03-11:20 14 14
2004-03-11:23 1 1
2004-03-12:01 1 1
2004-03-12:02 2 2
2004-03-12:03 1 1
2004-03-12:04 5 4
2004-03-12:05 11 10
2004-03-12:08 1 1
2004-03-12:09 2 2
2004-03-12:11 25 24
2004-03-12:12 22 22
2004-03-12:13 3 3
